{
	"info": {
		"_postman_id": "5b12067d-ca50-4f89-8acb-10a1eab0e2ec",
		"name": "Bearer Token Generate",
		"schema": "https://schema.getpostman.com/json/collection/v2.1.0/collection.json",
		"_exporter_id": "23667657"
	},
	"item": [
		{
			"name": "Generate Token",
			"event": [
				{
					"listen": "prerequest",
					"script": {
						"exec": [
							"const moment = require('moment');\r",
							"const timestamp = moment().format('YYYY-MM-DDTHH:mm:ssZ')\r",
							"\r",
							"pm.environment.set('TimeStamp', timestamp)\r",
							"\r",
							"const x_api_key_id = pm.variables.get('x_api_key_id');\r",
							"const x_api_key_secret = pm.variables.get('x_api_key_secret')\r",
							"\r",
							"const method = pm.request.method\r",
							"let json_body_raw = pm.request.body.raw\r",
							"\r",
							"if(json_body_raw && Object.keys(JSON.parse(json_body_raw)).length != 0){\r",
							"    json_body_raw = json_body_raw.replace(/\\n/g, '')\r",
							"    json_body_raw = json_body_raw.replace(/\\\\/g, '')\r",
							"    json_body_raw = json_body_raw.replace(/\\s/g, '')\r",
							"}else{\r",
							"    json_body_raw = ''\r",
							"}\r",
							"\r",
							"const body_md5 = CryptoJS.MD5(json_body_raw).toString(CryptoJS.enc.Base64)\r",
							"\r",
							"const hmac_signature = timestamp+\":\"+x_api_key_id+\":\"+method+\":\"+body_md5 \r",
							"\r",
							"// Hash hmac signature menggunakan bentuk SHA256\r",
							"const hmac = CryptoJS.HmacSHA256(hmac_signature, x_api_key_secret)\r",
							"\r",
							"// Hash hmac signature diubah kedalam bentuk base64\r",
							"const hmac_base64 = hmac.toString(CryptoJS.enc.Base64)\r",
							"\r",
							"// Penyusunan signature\r",
							"let signature = \"#\"+x_api_key_id+\":#\"+hmac_base64\r",
							"\r",
							"// mengubah bentuk signature menjadi base64\r",
							"signature = btoa(signature)\r",
							"\r",
							"pm.environment.set('Signature', signature)\r",
							"\r",
							""
						],
						"type": "text/javascript"
					}
				},
				{
					"listen": "test",
					"script": {
						"exec": [
							""
						],
						"type": "text/javascript"
					}
				}
			],
			"protocolProfileBehavior": {
				"disableBodyPruning": true
			},
			"request": {
				"method": "GET",
				"header": [
					{
						"key": "Xapi",
						"value": "{{Xapi}}",
						"type": "text"
					},
					{
						"key": "Timestamp",
						"value": "{{TimeStamp}}",
						"type": "text"
					},
					{
						"key": "Signature",
						"value": "{{Signature}}",
						"type": "text"
					},
					{
						"key": "x_api_key_secret",
						"value": "{{x_api_key_secret}}",
						"type": "text"
					}
				],
				"body": {
					"mode": "raw",
					"raw": "",
					"options": {
						"raw": {
							"language": "json"
						}
					}
				},
				"url": {
					"raw": "localhost:8080//external/generate/token",
					"host": [
						"localhost"
					],
					"port": "8080",
					"path": [
						"",
						"external",
						"generate",
						"token"
					]
				}
			},
			"response": []
		}
	]
}